*******************************************************************************
 Revised: Mar 02, 2015                Saturn                                699
 
 PHYSICAL DATA (updated 2009-May-26):
  Mass (10^26 kg)       = 5.68319         Density (g/cm^3)       =  0.687+-.001
  Equat. radius (1 bar) = 60268+-4 km     Polar radius (km)      = 54364+-10
  Volumetric mean radius= 58232+-6 km     Flattening             =  0.09796

  Rotation period       = 10h 39m 22.4s   Rot. rate(10^-4 rad/s) =  1.63785 
  m = w^2a^3/GM         =  0.15481        Hydrostatic flat., fh  =  0.09829
  Inferred rot. period  = 10.61+-0.02 hr  ks = 3*J2/m            =  0.317
  Mom. of inert. I/MRo^2=  0.210          I/MRo^2 (upper bound)  =  0.231 
  Rocky core mass (Mc/M)=  0.1027         Y factor (He/H ratio)  =  

  GM (km^3/s^2)         = 37931207.8      GM 1-sigma (km^3/s^2)  = +- 98
  Equ. grav, ge (m/s^2) = 10.44           Pol. grav, gp (m/s^2)  = 12.14+-0.01

  Geometric albedo      =  0.47           Visual magnitude V(1,0)= -8.88
  Vis. mag. (opposition)= +0.67           Obliquity to orbit     = 26.73 deg
  Sidereal orbit period = 29.447498 yr    Sidereal orbit period  = 10755.698 d
  Mean daily motion     = 0.0334979 deg/d Mean orbit velocity    =  9.6624 km/s

  Atmos. temp. (1 bar)  = 134+-4 K        Heat flow/mass (x10^7) = 15 erg/gm*s
  Planetary Solar Const =  15.04 W/m^2    Dipole tilt/offset     = 0.0deg/0.0Rp 
  Escape velocity (km/s)=  35.5           Mag.dip.mom(gauss-Rp^3)= 0.21
  Aroche(ice)/Rp        =  2.71           Hill's sphere rad. Rp  = 1100
*******************************************************************************
 
 
*******************************************************************************
Ephemeris / WWW_USER Sun Jan  3 15:39:08 2016 Pasadena, USA      / Horizons    
*******************************************************************************
Target body name: Saturn (699)                    {source: sat375l}
Center body name: Earth (399)                     {source: sat375l}
Center-site name: Berlin-Babelsberg
*******************************************************************************
Start time      : A.D. 2015-Dec-16 00:00:00.0000 CT 
Stop  time      : A.D. 2016-Jan-04 00:00:00.0000 CT 
Step-size       : 1440 minutes
*******************************************************************************
Center geodetic : 13.1062000,52.4067398,0.1160072 {E-lon(deg),Lat(deg),Alt(km)}
Center cylindric: 13.1062000,3899.26850,5030.6323 {E-lon(deg),Dxy(km),Dz(km)}
Center pole/equ : High-precision EOP model        {East-longitude +}
Center radii    : 6378.1 x 6378.1 x 6356.8 km     {Equator, meridian, pole}    
Output units    : KM-S                                                         
Output format   : 03
Reference frame : ICRF/J2000.0                                                 
EOP file        : eop.160101.p160324                                           
EOP coverage    : DATA-BASED 1962-JAN-20 TO 2016-JAN-01. PREDICTS-> 2016-MAR-23
Output type     : GEOMETRIC cartesian states
Coordinate systm: Ecliptic and Mean Equinox of Reference Epoch                 
*******************************************************************************
JDCT 
   X     Y     Z
   VX    VY    VZ
   LT    RG    RR
*******************************************************************************
$$SOE
2457372.500000000 = A.D. 2015-Dec-16 00:00:00.0000 (TDB)
  -5.840484369624553E+08 -1.531138296341320E+09  4.665794019541359E+07
   3.877868279000385E+01 -6.935271144885217E+00 -2.851133270061630E-01
   5.468492161397946E+03  1.639412706619223E+09 -7.345967600138582E+00
2457373.500000000 = A.D. 2015-Dec-17 00:00:00.0000 (TDB)
  -5.807198205452057E+08 -1.531717222420720E+09  4.663451047353274E+07
   3.883334423221718E+01 -6.398733315654589E+00 -2.872179791408489E-01
   5.466349161588944E+03  1.638770251438989E+09 -7.788545667757140E+00
2457374.500000000 = A.D. 2015-Dec-18 00:00:00.0000 (TDB)
  -5.773868436415772E+08 -1.532250153462543E+09  4.661106537168258E+07
   3.887833653738200E+01 -5.861762914027348E+00 -2.893066767874020E-01
   5.464079927499045E+03  1.638089952173401E+09 -8.228875202679871E+00
2457375.500000000 = A.D. 2015-Dec-19 00:00:00.0000 (TDB)
  -5.740503228952016E+08 -1.532737055536179E+09  4.658760213708186E+07
   3.891383352030266E+01 -5.324395950728037E+00 -2.914871214799384E-01
   5.461685089614886E+03  1.637371997837597E+09 -8.667046602835184E+00
2457376.500000000 = A.D. 2015-Dec-20 00:00:00.0000 (TDB)
  -5.707110809746130E+08 -1.533177901280239E+09  4.656411325044620E+07
   3.893966498572572E+01 -4.786910568715092E+00 -2.936907893514009E-01
   5.459165288604272E+03  1.636616580498954E+09 -9.102796846936565E+00
2457377.500000000 = A.D. 2015-Dec-21 00:00:00.0000 (TDB)
  -5.673699358973302E+08 -1.533572694432322E+09  4.654060012750602E+07
   3.895607091444253E+01 -4.249588373332446E+00 -2.958597674215331E-01
   5.456521240944518E+03  1.635823914951967E+09 -9.536002080766025E+00
2457378.500000000 = A.D. 2015-Dec-22 00:00:00.0000 (TDB)
  -5.640276879096507E+08 -1.533921454875111E+09  4.651706603386331E+07
   3.896324203103309E+01 -3.712590640340044E+00 -2.979742152494529E-01
   5.453753676948070E+03  1.634994220138800E+09 -9.966632031705515E+00
2457379.500000000 = A.D. 2015-Dec-23 00:00:00.0000 (TDB)
  -5.606851216707197E+08 -1.534224209130632E+09  4.649351339439535E+07
   3.896125426055716E+01 -3.175935130694235E+00 -3.000534593818396E-01
   5.450863314064299E+03  1.634127711145362E+09 -1.039475032769124E+01
2457380.500000000 = A.D. 2015-Dec-24 00:00:00.0000 (TDB)
  -5.573430159498444E+08 -1.534480994058544E+09  4.646994812809306E+07
   3.895030045057058E+01 -2.639782594667297E+00 -3.020415962878502E-01
   5.447850880568595E+03  1.633224606303123E+09 -1.082032287195543E+01
2457381.500000000 = A.D. 2015-Dec-25 00:00:00.0000 (TDB)
  -5.540021345910363E+08 -1.534691846308285E+09  4.644637430426610E+07
   3.893037515696577E+01 -2.104042041244189E+00 -3.039869653784329E-01
   5.444717072136919E+03  1.632285114170490E+09 -1.124348540916870E+01
2457382.500000000 = A.D. 2015-Dec-26 00:00:00.0000 (TDB)
  -5.506632467991396E+08 -1.534856810232197E+09  4.642280016546786E+07
   3.890156829004385E+01 -1.568952547482784E+00 -3.057797329545000E-01
   5.441462600647755E+03  1.631309448163263E+09 -1.166409081403922E+01
2457383.500000000 = A.D. 2015-Dec-27 00:00:00.0000 (TDB)
  -5.473271032213043E+08 -1.534975935851694E+09  4.639923426130188E+07
   3.886400905369238E+01 -1.034392503928277E+00 -3.075136711247252E-01
   5.438088160663687E+03  1.630297816506065E+09 -1.208234844738289E+01
2457384.500000000 = A.D. 2015-Dec-28 00:00:00.0000 (TDB)
  -5.439944562814832E+08 -1.535049266372353E+09  4.637567933004165E+07
   3.881762640185033E+01 -5.003431844478754E-01 -3.092279356280280E-01
   5.434594412995633E+03  1.629250417305028E+09 -1.249830140885055E+01
2457385.500000000 = A.D. 2015-Dec-29 00:00:00.0000 (TDB)
  -5.406660697660666E+08 -1.535076846648303E+09  4.635213620457619E+07
   3.876225053833639E+01  3.306790303643201E-02 -3.108954209334497E-01
   5.430982022291996E+03  1.628167449816728E+09 -1.291182064561678E+01
2457386.500000000 = A.D. 2015-Dec-30 00:00:00.0000 (TDB)
  -5.373427092673132E+08 -1.535058736851138E+09  4.632860825744778E+07
   3.869798930431306E+01  5.657457000020114E-01 -3.125482744407206E-01
   5.427251689740251E+03  1.627049124251883E+09 -1.332290150251999E+01
2457387.500000000 = A.D. 2015-Dec-31 00:00:00.0000 (TDB)
  -5.340251431659995E+08 -1.534994997247937E+09  4.630509249165994E+07
   3.862464700271993E+01  1.097624502293966E+00 -3.142184326263676E-01
   5.423404105594021E+03  1.625895647543323E+09 -1.373146592314262E+01
2457388.500000000 = A.D. 2016-Jan-01 00:00:00.0000 (TDB)
  -5.307141444977989E+08 -1.534885703861304E+09  4.628158689636934E+07
   3.854235733546768E+01  1.628589462461545E+00 -3.159493345776944E-01
   5.419440001301443E+03  1.624707238973683E+09 -1.413749810993964E+01
2457389.500000000 = A.D. 2016-Jan-02 00:00:00.0000 (TDB)
  -5.274104888637657E+08 -1.534730928825083E+09  4.625807954225260E+07
   3.845086232109493E+01  2.158663424736784E+00 -3.178272438682710E-01
   5.415360084422422E+03  1.623484110664086E+09 -1.454098474985391E+01
2457390.500000000 = A.D. 2016-Jan-03 00:00:00.0000 (TDB)
  -5.241149731955239E+08 -1.534530755118393E+09  4.623455759465277E+07
   3.834998068661908E+01  2.687646696545657E+00 -3.198293284099475E-01
   5.411165106226449E+03  1.622226487839458E+09 -1.494172543942673E+01
2457391.500000000 = A.D. 2016-Jan-04 00:00:00.0000 (TDB)
  -5.208284066923688E+08 -1.534285285889551E+09  4.621101116752785E+07
   3.823964756616306E+01  3.215268623951568E+00 -3.219130301516870E-01
   5.406855881417003E+03  1.620934614741760E+09 -1.533948979482201E+01
$$EOE
*******************************************************************************
Coordinate system description:

  Ecliptic and Mean Equinox of Reference Epoch

    Reference epoch: J2000.0
    xy-plane: plane of the Earth's orbit at the reference epoch
    x-axis  : out along ascending node of instantaneous plane of the Earth's
              orbit and the Earth's mean equator at the reference epoch
    z-axis  : perpendicular to the xy-plane in the directional (+ or -) sense
              of Earth's north pole at the reference epoch.

Symbol meaning  

    JDTDB    Epoch Julian Date, Barycentric Dynamical Time
      X      x-component of position vector (km)                               
      Y      y-component of position vector (km)                               
      Z      z-component of position vector (km)                               
      VX     x-component of velocity vector (km/sec)                           
      VY     y-component of velocity vector (km/sec)                           
      VZ     z-component of velocity vector (km/sec)                           
      LT     One-way down-leg Newtonian light-time (sec)                       
      RG     Range; distance from coordinate center (km)                       
      RR     Range-rate; radial velocity wrt coord. center (km/sec)            

Geometric states/elements have no aberration corrections applied.

 Computations by ...
     Solar System Dynamics Group, Horizons On-Line Ephemeris System
     4800 Oak Grove Drive, Jet Propulsion Laboratory
     Pasadena, CA  91109   USA
     Information: http://ssd.jpl.nasa.gov/
     Connect    : telnet://ssd.jpl.nasa.gov:6775  (via browser)
                  telnet ssd.jpl.nasa.gov 6775    (via command-line)
     Author     : Jon.Giorgini@jpl.nasa.gov
*******************************************************************************
