*******************************************************************************
 Revised : Jul 31, 2013                  Sun                                 10

 PHYSICAL PROPERTIES (revised Jan 16, 2014):
  GM (10^11 km^3/s^2)   = 1.3271244004193938  Mass (10^30 kg)   ~ 1.988544
  Radius (photosphere)  = 6.963(10^5) km  Angular diam at 1 AU  = 1919.3"
  Solar Radius (IAU)    = 6.955(10^5) km  Mean density          = 1.408 g/cm^3
  Surface gravity       =  274.0 m/s^2    Moment of inertia     = 0.059
  Escape velocity       =  617.7 km/s     Adopted sidereal per  = 25.38 d
  Pole (RA,DEC in deg.) =  286.13,63.87   Obliquity to ecliptic = 7 deg 15'        
  Solar constant (1 AU) = 1367.6 W/m^2    Solar lumin.(erg/s)   =  3.846(10^33)
  Mass-energy conv rate = 4.3(10^12 gm/s) Effective temp (K)    =  5778
  Surf. temp (photosphr)= 6600 K (bottom) Surf. temp (photosphr)=  4400 K (top)
  Photospheric depth    = ~400 km         Chromospheric depth   = ~2500 km
  Sunspot cycle         = 11.4 yr         Cycle 22 sunspot min. =  1991 A.D.

  Motn. rel to nrby strs= apex : RA=271 deg; DEC=+30 deg
                          speed: 19.4 km/s = 0.0112 AU/day
  Motn. rel to 2.73K BB = apex : l=264.7+-0.8; b=48.2+-0.5
                          speed: 369 +-11 km/s
*******************************************************************************
 
 
*******************************************************************************
Ephemeris / WWW_USER Sun Jan  3 15:38:02 2016 Pasadena, USA      / Horizons    
*******************************************************************************
Target body name: Sun (10)                        {source: DE431mx}
Center body name: Earth (399)                     {source: DE431mx}
Center-site name: Berlin-Babelsberg
*******************************************************************************
Start time      : A.D. 2015-Dec-16 00:00:00.0000 CT 
Stop  time      : A.D. 2016-Jan-04 00:00:00.0000 CT 
Step-size       : 1440 minutes
*******************************************************************************
Center geodetic : 13.1062000,52.4067398,0.1160072 {E-lon(deg),Lat(deg),Alt(km)}
Center cylindric: 13.1062000,3899.26850,5030.6323 {E-lon(deg),Dxy(km),Dz(km)}
Center pole/equ : High-precision EOP model        {East-longitude +}
Center radii    : 6378.1 x 6378.1 x 6356.8 km     {Equator, meridian, pole}    
Output units    : KM-S                                                         
Output format   : 03
Reference frame : ICRF/J2000.0                                                 
EOP file        : eop.160101.p160324                                           
EOP coverage    : DATA-BASED 1962-JAN-20 TO 2016-JAN-01. PREDICTS-> 2016-MAR-23
Output type     : GEOMETRIC cartesian states
Coordinate systm: Ecliptic and Mean Equinox of Reference Epoch                 
*******************************************************************************
JDCT 
   X     Y     Z
   VX    VY    VZ
   LT    RG    RR
*******************************************************************************
$$SOE
2457372.500000000 = A.D. 2015-Dec-16 00:00:00.0000 (TDB)
  -1.673961134408568E+07 -1.462911043632059E+08  2.513724605388939E+03
   3.037075420373199E+01 -3.234727651505158E+00 -1.499068969192852E-02
   4.911588508242193E+02  1.472457191570480E+08 -2.389392304796403E-01
2457373.500000000 = A.D. 2015-Dec-17 00:00:00.0000 (TDB)
  -1.413754012482095E+07 -1.465504921718282E+08  2.423018894866109E+03
   3.042308985210723E+01 -2.702587380189338E+00 -1.706962778637300E-02
   4.911091802779036E+02  1.472308283018779E+08 -2.312164140740372E-01
2457374.500000000 = A.D. 2015-Dec-18 00:00:00.0000 (TDB)
  -1.153131258817874E+07 -1.467642684085297E+08  2.321285885341465E+03
   3.046564200529524E+01 -2.170083957661689E+00 -1.908571182345142E-02
   4.910616556642173E+02  1.472165807811253E+08 -2.229239455268235E-01
2457375.500000000 = A.D. 2015-Dec-19 00:00:00.0000 (TDB)
  -8.921760795015184E+06 -1.469324120372517E+08  2.213852406345308E+03
   3.049855609864531E+01 -1.637472587009485E+00 -2.103193635706424E-02
   4.910164493056427E+02  1.472030282557710E+08 -2.140110307931159E-01
2457376.500000000 = A.D. 2015-Dec-20 00:00:00.0000 (TDB)
  -6.309703080002797E+06 -1.470549221254502E+08  2.106428324081004E+03
   3.052200308045831E+01 -1.104964620195267E+00 -2.290543662961303E-02
   4.909737438636010E+02  1.471902254863314E+08 -2.044588138896841E-01
2457377.500000000 = A.D. 2015-Dec-21 00:00:00.0000 (TDB)
  -3.695942365057964E+06 -1.471318137150950E+08  2.004722256995738E+03
   3.053616688657353E+01 -5.727200709769834E-01 -2.470807174899237E-02
   4.909337223341985E+02  1.471782273336588E+08 -1.942856638481042E-01
2457378.500000000 = A.D. 2015-Dec-22 00:00:00.0000 (TDB)
  -1.081265710953838E+06 -1.471631131782154E+08  1.914019788831472E+03
   3.054122830738077E+01 -4.084353015677748E-02 -2.644667272948123E-02
   4.908965567802487E+02  1.471670853808873E+08 -1.835503668341790E-01
2457379.500000000 = A.D. 2015-Dec-23 00:00:00.0000 (TDB)
   1.533554605493159E+06 -1.471488534557732E+08  1.838762103848159E+03
   3.053734611775365E+01  4.906140017431968E-01 -2.813274044482711E-02
   4.908623966888576E+02  1.471568444431237E+08 -1.723511528997218E-01
2457380.500000000 = A.D. 2015-Dec-24 00:00:00.0000 (TDB)
   4.147758366300580E+06 -1.470890697952079E+08  1.782181064866483E+03
   3.052463848675342E+01  1.021645169364041E+00 -2.978142134710199E-02
   4.908313584556710E+02  1.471475394149047E+08 -1.608186323112957E-01
2457381.500000000 = A.D. 2015-Dec-25 00:00:00.0000 (TDB)
   6.760593260928674E+06 -1.469837967088204E+08  1.746053813934326E+03
   3.050316939240275E+01  1.552268224815175E+00 -3.140979337114513E-02
   4.908035178410696E+02  1.471391930086211E+08 -1.491024257857353E-01
2457382.500000000 = A.D. 2015-Dec-26 00:00:00.0000 (TDB)
   9.371309941381095E+06 -1.468330667293776E+08  1.730624203890562E+03
   3.047294438047130E+01  2.082504289368588E+00 -3.303479740784998E-02
   4.907789069202819E+02  1.471318148401845E+08 -1.373539901073087E-01
2457383.500000000 = A.D. 2015-Dec-27 00:00:00.0000 (TDB)
   1.197915717936832E+07 -1.466369111282913E+08  1.734699898377061E+03
   3.043391706287000E+01  2.612355696582260E+00 -3.467133829658187E-02
   4.907575160029301E+02  1.471254020044928E+08 -1.257101352154101E-01
2457384.500000000 = A.D. 2015-Dec-28 00:00:00.0000 (TDB)
   1.458337796890750E+07 -1.463953622543455E+08  1.755889008529484E+03
   3.038600379210937E+01  3.141790858738891E+00 -3.633101944432759E-02
   4.907392996650516E+02  1.471199408837844E+08 -1.142815604718240E-01
2457385.500000000 = A.D. 2015-Dec-29 00:00:00.0000 (TDB)
   1.718320706881549E+07 -1.461084567921450E+08  1.790910503618419E+03
   3.032910138856403E+01  3.670738225056262E+00 -3.802170783607850E-02
   4.907241850742193E+02  1.471154096434471E+08 -1.031485152396110E-01
2457386.500000000 = A.D. 2015-Dec-30 00:00:00.0000 (TDB)
   1.977787002184772E+07 -1.457762391735060E+08  1.835909838534892E+03
   3.026310288776171E+01  4.199088385438463E+00 -3.974781100472158E-02
   4.907120805939056E+02  1.471117808115411E+08 -9.236289787842859E-02
2457387.500000000 = A.D. 2015-Dec-31 00:00:00.0000 (TDB)
   2.236658333170809E+07 -1.453987645651008E+08  1.886730466775596E+03
   3.018790830913283E+01  4.726701172245449E+00 -4.151096515490704E-02
   4.907028831407783E+02  1.471090234844607E+08 -8.195433659442238E-02
2457388.500000000 = A.D. 2016-Jan-01 00:00:00.0000 (TDB)
   2.494855532646914E+07 -1.449761011539644E+08  1.939119507148862E+03
   3.010342984246705E+01  5.253414283957770E+00 -4.331082322889634E-02
   4.906964835495981E+02  1.471071049352906E+08 -7.193751575077913E-02
2457389.500000000 = A.D. 2016-Jan-02 00:00:00.0000 (TDB)
   2.752298726228116E+07 -1.445083317206304E+08  1.988869570419192E+03
   3.000959247319495E+01  5.779050820625041E+00 -4.514571549558255E-02
   4.906927699065246E+02  1.471059916131054E+08 -6.231868137853982E-02
2457390.500000000 = A.D. 2016-Jan-03 00:00:00.0000 (TDB)
   3.008907434328648E+07 -1.439955546633531E+08  2.031913413710892E+03
   2.990633170627696E+01  6.303424303640395E+00 -4.701306754026335E-02
   4.906916292723883E+02  1.471056496595940E+08 -5.310017922876748E-02
2457391.500000000 = A.D. 2016-Jan-04 00:00:00.0000 (TDB)
   3.264600647983244E+07 -1.434378847180924E+08  2.064394294925034E+03
   2.979359004357396E+01  6.826340669697144E+00 -4.890954309721529E-02
   4.906929484418251E+02  1.471060451366420E+08 -4.428256751100132E-02
$$EOE
*******************************************************************************
Coordinate system description:

  Ecliptic and Mean Equinox of Reference Epoch

    Reference epoch: J2000.0
    xy-plane: plane of the Earth's orbit at the reference epoch
    x-axis  : out along ascending node of instantaneous plane of the Earth's
              orbit and the Earth's mean equator at the reference epoch
    z-axis  : perpendicular to the xy-plane in the directional (+ or -) sense
              of Earth's north pole at the reference epoch.

Symbol meaning  

    JDTDB    Epoch Julian Date, Barycentric Dynamical Time
      X      x-component of position vector (km)                               
      Y      y-component of position vector (km)                               
      Z      z-component of position vector (km)                               
      VX     x-component of velocity vector (km/sec)                           
      VY     y-component of velocity vector (km/sec)                           
      VZ     z-component of velocity vector (km/sec)                           
      LT     One-way down-leg Newtonian light-time (sec)                       
      RG     Range; distance from coordinate center (km)                       
      RR     Range-rate; radial velocity wrt coord. center (km/sec)            

Geometric states/elements have no aberration corrections applied.

 Computations by ...
     Solar System Dynamics Group, Horizons On-Line Ephemeris System
     4800 Oak Grove Drive, Jet Propulsion Laboratory
     Pasadena, CA  91109   USA
     Information: http://ssd.jpl.nasa.gov/
     Connect    : telnet://ssd.jpl.nasa.gov:6775  (via browser)
                  telnet ssd.jpl.nasa.gov 6775    (via command-line)
     Author     : Jon.Giorgini@jpl.nasa.gov
*******************************************************************************
